%YAML 1.1
%TAG !u! tag:unity3d.com,2011:
--- !u!114 &11400000
MonoBehaviour:
  m_ObjectHideFlags: 0
  m_CorrespondingSourceObject: {fileID: 0}
  m_PrefabInstance: {fileID: 0}
  m_PrefabAsset: {fileID: 0}
  m_GameObject: {fileID: 0}
  m_Enabled: 1
  m_EditorHideFlags: 0
  m_Script: {fileID: 11500000, guid: ed8312c14f00d014b8aeea0351b8e067, type: 3}
  m_Name: CarronadeRecoil
  m_EditorClassIdentifier: 
  m_clips:
  - {fileID: 8300000, guid: b10eebd09723b4d48815169e3360fa0a, type: 3}
  m_pitch:
    m_min: 0.9
    m_max: 1.1
  m_volume:
    m_min: 1
    m_max: 1
