{
    "m_SGVersion": 3,
    "m_Type": "UnityEditor.ShaderGraph.GraphData",
    "m_ObjectId": "e070737edd5a4e63a5718217dd4b675f",
    "m_Properties": [
        {
            "m_Id": "d1a8331ca0c5403cb32e92a948effa27"
        },
        {
            "m_Id": "a0a2e5ef137a45d0b4331681772c600f"
        }
    ],
    "m_Keywords": [],
    "m_Dropdowns": [],
    "m_CategoryData": [
        {
            "m_Id": "a6102ed26a2e40ce8c25be4fd963cc6c"
        }
    ],
    "m_Nodes": [
        {
            "m_Id": "2ff298fc04baa086ae1d2883d93271b6"
        },
        {
            "m_Id": "3a821778b03801869631a1c6fa9229f3"
        },
        {
            "m_Id": "dec81c81dfeed081bda51ac0438c52e1"
        },
        {
            "m_Id": "ade39127e9873a8e927ff8c0d7125980"
        },
        {
            "m_Id": "1a69215fabe09b8dbd21a755370d6668"
        },
        {
            "m_Id": "b4201a0782cae383b996659cb1b40c13"
        },
        {
            "m_Id": "52f95bbf6ba2588481637eb770d6e069"
        },
        {
            "m_Id": "dc6a8e6f2b58463c9129cef57068b2ae"
        },
        {
            "m_Id": "3b48a65de1804b8f99b1104b00d2938b"
        },
        {
            "m_Id": "5cd1f0cbd1da47bcb12f28f735568345"
        },
        {
            "m_Id": "46f8e541459d42b8b6a0c82624b039a7"
        },
        {
            "m_Id": "90140e9935f54012954b3d221dd34211"
        },
        {
            "m_Id": "72994b0d48144be88e70a73e68d2e99f"
        },
        {
            "m_Id": "5b4b3b00fed94a918912312d04f1abdf"
        },
        {
            "m_Id": "2eefa7be7b374e5b9d916c6555eeef7f"
        },
        {
            "m_Id": "e98c0266919645709c89d1cf0f5c7972"
        },
        {
            "m_Id": "a61ee46979ea4f7ea0af517adf2e0070"
        },
        {
            "m_Id": "6b98f048774e4467bcd81765dd8e18ac"
        },
        {
            "m_Id": "58669f4595a2420581bde57bea2a17f7"
        },
        {
            "m_Id": "d917340e4d304771ab5e3eeed3398ffa"
        },
        {
            "m_Id": "46794b5049714e35a85c9f835fa837b3"
        },
        {
            "m_Id": "3bd0762e4a5d4a0da186418a4e3078a6"
        },
        {
            "m_Id": "67691838170c4f209f683efcb0172c05"
        },
        {
            "m_Id": "b3a1578a2007457e9ab4ceba508e444c"
        }
    ],
    "m_GroupDatas": [],
    "m_StickyNoteDatas": [],
    "m_Edges": [
        {
            "m_OutputSlot": {
                "m_Node": {
                    "m_Id": "1a69215fabe09b8dbd21a755370d6668"
                },
                "m_SlotId": 0
            },
            "m_InputSlot": {
                "m_Node": {
                    "m_Id": "dec81c81dfeed081bda51ac0438c52e1"
                },
                "m_SlotId": 0
            }
        },
        {
            "m_OutputSlot": {
                "m_Node": {
                    "m_Id": "2ff298fc04baa086ae1d2883d93271b6"
                },
                "m_SlotId": 3
            },
            "m_InputSlot": {
                "m_Node": {
                    "m_Id": "e98c0266919645709c89d1cf0f5c7972"
                },
                "m_SlotId": 0
            }
        },
        {
            "m_OutputSlot": {
                "m_Node": {
                    "m_Id": "3a821778b03801869631a1c6fa9229f3"
                },
                "m_SlotId": 4
            },
            "m_InputSlot": {
                "m_Node": {
                    "m_Id": "2ff298fc04baa086ae1d2883d93271b6"
                },
                "m_SlotId": 2
            }
        },
        {
            "m_OutputSlot": {
                "m_Node": {
                    "m_Id": "3bd0762e4a5d4a0da186418a4e3078a6"
                },
                "m_SlotId": 0
            },
            "m_InputSlot": {
                "m_Node": {
                    "m_Id": "46794b5049714e35a85c9f835fa837b3"
                },
                "m_SlotId": 0
            }
        },
        {
            "m_OutputSlot": {
                "m_Node": {
                    "m_Id": "46794b5049714e35a85c9f835fa837b3"
                },
                "m_SlotId": 1
            },
            "m_InputSlot": {
                "m_Node": {
                    "m_Id": "2ff298fc04baa086ae1d2883d93271b6"
                },
                "m_SlotId": 0
            }
        },
        {
            "m_OutputSlot": {
                "m_Node": {
                    "m_Id": "46794b5049714e35a85c9f835fa837b3"
                },
                "m_SlotId": 2
            },
            "m_InputSlot": {
                "m_Node": {
                    "m_Id": "2ff298fc04baa086ae1d2883d93271b6"
                },
                "m_SlotId": 1
            }
        },
        {
            "m_OutputSlot": {
                "m_Node": {
                    "m_Id": "52f95bbf6ba2588481637eb770d6e069"
                },
                "m_SlotId": 0
            },
            "m_InputSlot": {
                "m_Node": {
                    "m_Id": "67691838170c4f209f683efcb0172c05"
                },
                "m_SlotId": 0
            }
        },
        {
            "m_OutputSlot": {
                "m_Node": {
                    "m_Id": "67691838170c4f209f683efcb0172c05"
                },
                "m_SlotId": 2
            },
            "m_InputSlot": {
                "m_Node": {
                    "m_Id": "46f8e541459d42b8b6a0c82624b039a7"
                },
                "m_SlotId": 0
            }
        },
        {
            "m_OutputSlot": {
                "m_Node": {
                    "m_Id": "ade39127e9873a8e927ff8c0d7125980"
                },
                "m_SlotId": 4
            },
            "m_InputSlot": {
                "m_Node": {
                    "m_Id": "a61ee46979ea4f7ea0af517adf2e0070"
                },
                "m_SlotId": 0
            }
        },
        {
            "m_OutputSlot": {
                "m_Node": {
                    "m_Id": "b3a1578a2007457e9ab4ceba508e444c"
                },
                "m_SlotId": 0
            },
            "m_InputSlot": {
                "m_Node": {
                    "m_Id": "67691838170c4f209f683efcb0172c05"
                },
                "m_SlotId": 1
            }
        },
        {
            "m_OutputSlot": {
                "m_Node": {
                    "m_Id": "b4201a0782cae383b996659cb1b40c13"
                },
                "m_SlotId": 0
            },
            "m_InputSlot": {
                "m_Node": {
                    "m_Id": "58669f4595a2420581bde57bea2a17f7"
                },
                "m_SlotId": 0
            }
        },
        {
            "m_OutputSlot": {
                "m_Node": {
                    "m_Id": "b4201a0782cae383b996659cb1b40c13"
                },
                "m_SlotId": 1
            },
            "m_InputSlot": {
                "m_Node": {
                    "m_Id": "1a69215fabe09b8dbd21a755370d6668"
                },
                "m_SlotId": 2
            }
        },
        {
            "m_OutputSlot": {
                "m_Node": {
                    "m_Id": "b4201a0782cae383b996659cb1b40c13"
                },
                "m_SlotId": 1
            },
            "m_InputSlot": {
                "m_Node": {
                    "m_Id": "3a821778b03801869631a1c6fa9229f3"
                },
                "m_SlotId": 2
            }
        },
        {
            "m_OutputSlot": {
                "m_Node": {
                    "m_Id": "b4201a0782cae383b996659cb1b40c13"
                },
                "m_SlotId": 1
            },
            "m_InputSlot": {
                "m_Node": {
                    "m_Id": "52f95bbf6ba2588481637eb770d6e069"
                },
                "m_SlotId": 2
            }
        },
        {
            "m_OutputSlot": {
                "m_Node": {
                    "m_Id": "b4201a0782cae383b996659cb1b40c13"
                },
                "m_SlotId": 1
            },
            "m_InputSlot": {
                "m_Node": {
                    "m_Id": "ade39127e9873a8e927ff8c0d7125980"
                },
                "m_SlotId": 2
            }
        },
        {
            "m_OutputSlot": {
                "m_Node": {
                    "m_Id": "d917340e4d304771ab5e3eeed3398ffa"
                },
                "m_SlotId": 0
            },
            "m_InputSlot": {
                "m_Node": {
                    "m_Id": "b4201a0782cae383b996659cb1b40c13"
                },
                "m_SlotId": 4
            }
        },
        {
            "m_OutputSlot": {
                "m_Node": {
                    "m_Id": "dec81c81dfeed081bda51ac0438c52e1"
                },
                "m_SlotId": 2
            },
            "m_InputSlot": {
                "m_Node": {
                    "m_Id": "90140e9935f54012954b3d221dd34211"
                },
                "m_SlotId": 0
            }
        }
    ],
    "m_VertexContext": {
        "m_Position": {
            "x": 146.0000762939453,
            "y": 5.000030517578125
        },
        "m_Blocks": [
            {
                "m_Id": "dc6a8e6f2b58463c9129cef57068b2ae"
            },
            {
                "m_Id": "3b48a65de1804b8f99b1104b00d2938b"
            },
            {
                "m_Id": "5cd1f0cbd1da47bcb12f28f735568345"
            }
        ]
    },
    "m_FragmentContext": {
        "m_Position": {
            "x": 146.0000762939453,
            "y": 205.00003051757813
        },
        "m_Blocks": [
            {
                "m_Id": "46f8e541459d42b8b6a0c82624b039a7"
            },
            {
                "m_Id": "90140e9935f54012954b3d221dd34211"
            },
            {
                "m_Id": "72994b0d48144be88e70a73e68d2e99f"
            },
            {
                "m_Id": "5b4b3b00fed94a918912312d04f1abdf"
            },
            {
                "m_Id": "2eefa7be7b374e5b9d916c6555eeef7f"
            },
            {
                "m_Id": "e98c0266919645709c89d1cf0f5c7972"
            },
            {
                "m_Id": "a61ee46979ea4f7ea0af517adf2e0070"
            },
            {
                "m_Id": "6b98f048774e4467bcd81765dd8e18ac"
            },
            {
                "m_Id": "58669f4595a2420581bde57bea2a17f7"
            }
        ]
    },
    "m_PreviewData": {
        "serializedMesh": {
            "m_SerializedMesh": "{\"mesh\":{\"instanceID\":0}}",
            "m_Guid": ""
        },
        "preventRotation": false
    },
    "m_Path": "Shader Graphs",
    "m_GraphPrecision": 0,
    "m_PreviewMode": 2,
    "m_OutputNode": {
        "m_Id": ""
    },
    "m_ActiveTargets": [
        {
            "m_Id": "0015f55399ff40d0bc64954e93c0fde5"
        }
    ]
}

{
    "m_SGVersion": 0,
    "m_Type": "UnityEditor.Rendering.HighDefinition.ShaderGraph.HDTarget",
    "m_ObjectId": "0015f55399ff40d0bc64954e93c0fde5",
    "m_ActiveSubTarget": {
        "m_Id": "d3b26de769334ed299bbe45241cbefbd"
    },
    "m_Datas": [
        {
            "m_Id": "24801c38634b4dc087475c37f0092dc3"
        },
        {
            "m_Id": "ab8638dcc9d84ca6a879d5ce45900bde"
        },
        {
            "m_Id": "8dcd094ffebf493aa3201775e96956c5"
        },
        {
            "m_Id": "a662eb3d8fe947db8a1680c4d1836710"
        },
        {
            "m_Id": "d0a69883a4114e769e40f142f1cedc69"
        },
        {
            "m_Id": "46a6a10c06ec4888ae896b1772b5e6a5"
        },
        {
            "m_Id": "30ef7170f2a3413bacccc905fcd048f5"
        },
        {
            "m_Id": "9a5e47cb830343878e363f0ff418245d"
        }
    ],
    "m_CustomEditorGUI": "",
    "m_SupportVFX": false
}

{
    "m_SGVersion": 0,
    "m_Type": "UnityEditor.ShaderGraph.Vector1MaterialSlot",
    "m_ObjectId": "03d15bac7eb37b8f815109f7e962e8b6",
    "m_Id": 5,
    "m_DisplayName": "G",
    "m_SlotType": 1,
    "m_Hidden": false,
    "m_ShaderOutputName": "G",
    "m_StageCapability": 2,
    "m_Value": 0.0,
    "m_DefaultValue": 0.0,
    "m_Labels": [
        "X"
    ]
}

{
    "m_SGVersion": 0,
    "m_Type": "UnityEditor.ShaderGraph.Texture2DInputMaterialSlot",
    "m_ObjectId": "0903c055580197809d86365deb99b1c3",
    "m_Id": 1,
    "m_DisplayName": "Texture",
    "m_SlotType": 0,
    "m_Hidden": false,
    "m_ShaderOutputName": "Texture",
    "m_StageCapability": 3,
    "m_BareResource": false,
    "m_Texture": {
        "m_SerializedTexture": "{\"texture\":{\"fileID\":2800000,\"guid\":\"8a58bf1febcff1547b5db34f57708f9a\",\"type\":3}}",
        "m_Guid": ""
    },
    "m_DefaultType": 3
}

{
    "m_SGVersion": 0,
    "m_Type": "UnityEditor.ShaderGraph.NormalMaterialSlot",
    "m_ObjectId": "09bef8f2da2941f58e5cda490327c370",
    "m_Id": 0,
    "m_DisplayName": "Normal",
    "m_SlotType": 0,
    "m_Hidden": false,
    "m_ShaderOutputName": "Normal",
    "m_StageCapability": 1,
    "m_Value": {
        "x": 0.0,
        "y": 0.0,
        "z": 0.0
    },
    "m_DefaultValue": {
        "x": 0.0,
        "y": 0.0,
        "z": 0.0
    },
    "m_Labels": [],
    "m_Space": 0
}

{
    "m_SGVersion": 0,
    "m_Type": "UnityEditor.ShaderGraph.DynamicValueMaterialSlot",
    "m_ObjectId": "174b3ec1fc4d47bda04a4d05d1d18ecd",
    "m_Id": 0,
    "m_DisplayName": "A",
    "m_SlotType": 0,
    "m_Hidden": false,
    "m_ShaderOutputName": "A",
    "m_StageCapability": 3,
    "m_Value": {
        "e00": 0.0,
        "e01": 0.0,
        "e02": 0.0,
        "e03": 0.0,
        "e10": 0.0,
        "e11": 0.0,
        "e12": 0.0,
        "e13": 0.0,
        "e20": 0.0,
        "e21": 0.0,
        "e22": 0.0,
        "e23": 0.0,
        "e30": 0.0,
        "e31": 0.0,
        "e32": 0.0,
        "e33": 0.0
    },
    "m_DefaultValue": {
        "e00": 1.0,
        "e01": 0.0,
        "e02": 0.0,
        "e03": 0.0,
        "e10": 0.0,
        "e11": 1.0,
        "e12": 0.0,
        "e13": 0.0,
        "e20": 0.0,
        "e21": 0.0,
        "e22": 1.0,
        "e23": 0.0,
        "e30": 0.0,
        "e31": 0.0,
        "e32": 0.0,
        "e33": 1.0
    }
}

{
    "m_SGVersion": 0,
    "m_Type": "UnityEditor.ShaderGraph.SampleTexture2DNode",
    "m_ObjectId": "1a69215fabe09b8dbd21a755370d6668",
    "m_Group": {
        "m_Id": ""
    },
    "m_Name": "Sample Texture 2D",
    "m_DrawState": {
        "m_Expanded": true,
        "m_Position": {
            "serializedVersion": "2",
            "x": -751.0,
            "y": 361.0,
            "width": 208.0,
            "height": 435.0
        }
    },
    "m_Slots": [
        {
            "m_Id": "a32adb8e85009183af8daa6ad5fa94ce"
        },
        {
            "m_Id": "2ddd6166327a4384840215ecfe88ad1f"
        },
        {
            "m_Id": "9da81beeff23558a8f3f896df0731b43"
        },
        {
            "m_Id": "ac85a496f8039a8489efcdf4e5803cce"
        },
        {
            "m_Id": "a1b5d025ee2167878a5cbc69e205e576"
        },
        {
            "m_Id": "0903c055580197809d86365deb99b1c3"
        },
        {
            "m_Id": "6ceeb851853af7819bbbcee6a2198f09"
        },
        {
            "m_Id": "39b9567ec8aaae8a97bfca9366d07948"
        }
    ],
    "synonyms": [],
    "m_Precision": 0,
    "m_PreviewExpanded": true,
    "m_PreviewMode": 0,
    "m_CustomColors": {
        "m_SerializableColors": []
    },
    "m_TextureType": 1,
    "m_NormalMapSpace": 0,
    "m_EnableGlobalMipBias": true
}

{
    "m_SGVersion": 0,
    "m_Type": "UnityEditor.ShaderGraph.DynamicValueMaterialSlot",
    "m_ObjectId": "1b769acd0190444fa3bcf9cdd62ab35a",
    "m_Id": 1,
    "m_DisplayName": "B",
    "m_SlotType": 0,
    "m_Hidden": false,
    "m_ShaderOutputName": "B",
    "m_StageCapability": 3,
    "m_Value": {
        "e00": 2.0,
        "e01": 2.0,
        "e02": 2.0,
        "e03": 0.75,
        "e10": 2.0,
        "e11": 2.0,
        "e12": 2.0,
        "e13": 2.0,
        "e20": 2.0,
        "e21": 2.0,
        "e22": 2.0,
        "e23": 2.0,
        "e30": 2.0,
        "e31": 2.0,
        "e32": 2.0,
        "e33": 2.0
    },
    "m_DefaultValue": {
        "e00": 1.0,
        "e01": 0.0,
        "e02": 0.0,
        "e03": 0.0,
        "e10": 0.0,
        "e11": 1.0,
        "e12": 0.0,
        "e13": 0.0,
        "e20": 0.0,
        "e21": 0.0,
        "e22": 1.0,
        "e23": 0.0,
        "e30": 0.0,
        "e31": 0.0,
        "e32": 0.0,
        "e33": 1.0
    }
}

{
    "m_SGVersion": 0,
    "m_Type": "UnityEditor.ShaderGraph.NormalMaterialSlot",
    "m_ObjectId": "2126690ea4104569aee5a230e6287e98",
    "m_Id": 0,
    "m_DisplayName": "Bent Normal",
    "m_SlotType": 0,
    "m_Hidden": false,
    "m_ShaderOutputName": "BentNormal",
    "m_StageCapability": 2,
    "m_Value": {
        "x": 0.0,
        "y": 0.0,
        "z": 0.0
    },
    "m_DefaultValue": {
        "x": 0.0,
        "y": 0.0,
        "z": 0.0
    },
    "m_Labels": [],
    "m_Space": 3
}

{
    "m_SGVersion": 0,
    "m_Type": "UnityEditor.ShaderGraph.UVMaterialSlot",
    "m_ObjectId": "21cf2f7cde6c04828018c418377393ee",
    "m_Id": 2,
    "m_DisplayName": "UV",
    "m_SlotType": 0,
    "m_Hidden": false,
    "m_ShaderOutputName": "UV",
    "m_StageCapability": 3,
    "m_Value": {
        "x": 0.0,
        "y": 0.0
    },
    "m_DefaultValue": {
        "x": 0.0,
        "y": 0.0
    },
    "m_Labels": [
        "X",
        "Y"
    ],
    "m_Channel": 0
}

{
    "m_SGVersion": 0,
    "m_Type": "UnityEditor.ShaderGraph.UVMaterialSlot",
    "m_ObjectId": "22e29f58bc99558387ebc5765c9640a1",
    "m_Id": 6,
    "m_DisplayName": "UVs",
    "m_SlotType": 0,
    "m_Hidden": false,
    "m_ShaderOutputName": "UVs",
    "m_StageCapability": 2,
    "m_Value": {
        "x": 0.0,
        "y": 0.0
    },
    "m_DefaultValue": {
        "x": 0.0,
        "y": 0.0
    },
    "m_Labels": [
        "X",
        "Y"
    ],
    "m_Channel": 0
}

{
    "m_SGVersion": 0,
    "m_Type": "UnityEditor.ShaderGraph.Vector1MaterialSlot",
    "m_ObjectId": "238d148d2e3d487db53d6bc5044910e1",
    "m_Id": 0,
    "m_DisplayName": "Out",
    "m_SlotType": 1,
    "m_Hidden": false,
    "m_ShaderOutputName": "Out",
    "m_StageCapability": 3,
    "m_Value": 0.0,
    "m_DefaultValue": 0.0,
    "m_Labels": []
}

{
    "m_SGVersion": 0,
    "m_Type": "UnityEditor.Rendering.HighDefinition.ShaderGraph.HDLitData",
    "m_ObjectId": "24801c38634b4dc087475c37f0092dc3",
    "m_RayTracing": false,
    "m_MaterialType": 0,
    "m_RefractionModel": 0,
    "m_SSSTransmission": true,
    "m_EnergyConservingSpecular": true,
    "m_ClearCoat": false
}

{
    "m_SGVersion": 0,
    "m_Type": "UnityEditor.ShaderGraph.Vector1MaterialSlot",
    "m_ObjectId": "2ddd6166327a4384840215ecfe88ad1f",
    "m_Id": 4,
    "m_DisplayName": "R",
    "m_SlotType": 1,
    "m_Hidden": false,
    "m_ShaderOutputName": "R",
    "m_StageCapability": 2,
    "m_Value": 0.0,
    "m_DefaultValue": 0.0,
    "m_Labels": [
        "X"
    ]
}

{
    "m_SGVersion": 0,
    "m_Type": "UnityEditor.ShaderGraph.DynamicVectorMaterialSlot",
    "m_ObjectId": "2dee800358024c84911eee395c1428e6",
    "m_Id": 0,
    "m_DisplayName": "In",
    "m_SlotType": 0,
    "m_Hidden": false,
    "m_ShaderOutputName": "In",
    "m_StageCapability": 3,
    "m_Value": {
        "x": 0.0,
        "y": 0.0,
        "z": 0.0,
        "w": 0.0
    },
    "m_DefaultValue": {
        "x": 0.0,
        "y": 0.0,
        "z": 0.0,
        "w": 0.0
    }
}

{
    "m_SGVersion": 0,
    "m_Type": "UnityEditor.ShaderGraph.BlockNode",
    "m_ObjectId": "2eefa7be7b374e5b9d916c6555eeef7f",
    "m_Group": {
        "m_Id": ""
    },
    "m_Name": "SurfaceDescription.Emission",
    "m_DrawState": {
        "m_Expanded": true,
        "m_Position": {
            "serializedVersion": "2",
            "x": 0.0,
            "y": 0.0,
            "width": 0.0,
            "height": 0.0
        }
    },
    "m_Slots": [
        {
            "m_Id": "e2477d0f398c48d2a51855c90e3b218f"
        }
    ],
    "synonyms": [],
    "m_Precision": 0,
    "m_PreviewExpanded": true,
    "m_PreviewMode": 0,
    "m_CustomColors": {
        "m_SerializableColors": []
    },
    "m_SerializedDescriptor": "SurfaceDescription.Emission"
}

{
    "m_SGVersion": 0,
    "m_Type": "UnityEditor.ShaderGraph.LerpNode",
    "m_ObjectId": "2ff298fc04baa086ae1d2883d93271b6",
    "m_Group": {
        "m_Id": ""
    },
    "m_Name": "Lerp",
    "m_DrawState": {
        "m_Expanded": true,
        "m_Position": {
            "serializedVersion": "2",
            "x": -178.0,
            "y": -262.0,
            "width": 208.0,
            "height": 326.0
        }
    },
    "m_Slots": [
        {
            "m_Id": "5ff87c2b863ac483acdc472759f231fc"
        },
        {
            "m_Id": "528f099ddffc9c80913fdff2d0765655"
        },
        {
            "m_Id": "f9968158a683e48c8ab930605118897b"
        },
        {
            "m_Id": "a08e954681ac6e8bbbb2c4940f7179ab"
        }
    ],
    "synonyms": [
        "mix",
        "blend",
        "linear interpolate"
    ],
    "m_Precision": 0,
    "m_PreviewExpanded": true,
    "m_PreviewMode": 0,
    "m_CustomColors": {
        "m_SerializableColors": []
    }
}

{
    "m_SGVersion": 0,
    "m_Type": "UnityEditor.Rendering.HighDefinition.ShaderGraph.LightingData",
    "m_ObjectId": "30ef7170f2a3413bacccc905fcd048f5",
    "m_NormalDropOffSpace": 0,
    "m_BlendPreserveSpecular": true,
    "m_ReceiveDecals": true,
    "m_ReceiveSSR": true,
    "m_ReceiveSSRTransparent": false,
    "m_SpecularAA": false,
    "m_SpecularOcclusionMode": 1,
    "m_OverrideBakedGI": false
}

{
    "m_SGVersion": 0,
    "m_Type": "UnityEditor.ShaderGraph.Vector2MaterialSlot",
    "m_ObjectId": "330c25d40a634b489437dbc39b8a9ffa",
    "m_Id": 10,
    "m_DisplayName": "Tiling",
    "m_SlotType": 0,
    "m_Hidden": false,
    "m_ShaderOutputName": "Tiling",
    "m_StageCapability": 2,
    "m_Value": {
        "x": 1.0,
        "y": 1.0
    },
    "m_DefaultValue": {
        "x": 0.0,
        "y": 0.0
    },
    "m_Labels": []
}

{
    "m_SGVersion": 0,
    "m_Type": "UnityEditor.ShaderGraph.Vector4MaterialSlot",
    "m_ObjectId": "37cdb4d834f3b988aed2604f0de3eb6f",
    "m_Id": 0,
    "m_DisplayName": "RGBA",
    "m_SlotType": 1,
    "m_Hidden": false,
    "m_ShaderOutputName": "RGBA",
    "m_StageCapability": 2,
    "m_Value": {
        "x": 0.0,
        "y": 0.0,
        "z": 0.0,
        "w": 0.0
    },
    "m_DefaultValue": {
        "x": 0.0,
        "y": 0.0,
        "z": 0.0,
        "w": 0.0
    },
    "m_Labels": []
}

{
    "m_SGVersion": 0,
    "m_Type": "UnityEditor.ShaderGraph.SamplerStateMaterialSlot",
    "m_ObjectId": "39b9567ec8aaae8a97bfca9366d07948",
    "m_Id": 3,
    "m_DisplayName": "Sampler",
    "m_SlotType": 0,
    "m_Hidden": false,
    "m_ShaderOutputName": "Sampler",
    "m_StageCapability": 3,
    "m_BareResource": false
}

{
    "m_SGVersion": 0,
    "m_Type": "UnityEditor.ShaderGraph.SampleTexture2DNode",
    "m_ObjectId": "3a821778b03801869631a1c6fa9229f3",
    "m_Group": {
        "m_Id": ""
    },
    "m_Name": "Sample Texture 2D",
    "m_DrawState": {
        "m_Expanded": true,
        "m_Position": {
            "serializedVersion": "2",
            "x": -507.0,
            "y": -239.0,
            "width": 208.0,
            "height": 435.0
        }
    },
    "m_Slots": [
        {
            "m_Id": "c9eeacf7d58c2089b67ca6688c9b5db2"
        },
        {
            "m_Id": "9fc46446491cc28b85cba2a471d3f82d"
        },
        {
            "m_Id": "fe43d10a0c326384a7cd6edf04189da9"
        },
        {
            "m_Id": "f8956770342562848d2c9aadd62a0b80"
        },
        {
            "m_Id": "4f4e9747a4d5fc8aa71a02d579d0147f"
        },
        {
            "m_Id": "be0019f955d1ba849d66c91993dd6433"
        },
        {
            "m_Id": "7a7abb7d6f1ecb888c38fc8a089daed7"
        },
        {
            "m_Id": "948c2a3f0bd524829974a3b71b359572"
        }
    ],
    "synonyms": [],
    "m_Precision": 0,
    "m_PreviewExpanded": true,
    "m_PreviewMode": 0,
    "m_CustomColors": {
        "m_SerializableColors": []
    },
    "m_TextureType": 0,
    "m_NormalMapSpace": 0,
    "m_EnableGlobalMipBias": true
}

{
    "m_SGVersion": 0,
    "m_Type": "UnityEditor.ShaderGraph.BlockNode",
    "m_ObjectId": "3b48a65de1804b8f99b1104b00d2938b",
    "m_Group": {
        "m_Id": ""
    },
    "m_Name": "VertexDescription.Normal",
    "m_DrawState": {
        "m_Expanded": true,
        "m_Position": {
            "serializedVersion": "2",
            "x": 0.0,
            "y": 0.0,
            "width": 0.0,
            "height": 0.0
        }
    },
    "m_Slots": [
        {
            "m_Id": "09bef8f2da2941f58e5cda490327c370"
        }
    ],
    "synonyms": [],
    "m_Precision": 0,
    "m_PreviewExpanded": true,
    "m_PreviewMode": 0,
    "m_CustomColors": {
        "m_SerializableColors": []
    },
    "m_SerializedDescriptor": "VertexDescription.Normal"
}

{
    "m_SGVersion": 0,
    "m_Type": "UnityEditor.ShaderGraph.PropertyNode",
    "m_ObjectId": "3bd0762e4a5d4a0da186418a4e3078a6",
    "m_Group": {
        "m_Id": ""
    },
    "m_Name": "Property",
    "m_DrawState": {
        "m_Expanded": true,
        "m_Position": {
            "serializedVersion": "2",
            "x": -552.1739501953125,
            "y": -376.5217590332031,
            "width": 0.0,
            "height": 0.0
        }
    },
    "m_Slots": [
        {
            "m_Id": "58d3ab7206494bad911657da3273677a"
        }
    ],
    "synonyms": [],
    "m_Precision": 0,
    "m_PreviewExpanded": true,
    "m_PreviewMode": 0,
    "m_CustomColors": {
        "m_SerializableColors": []
    },
    "m_Property": {
        "m_Id": "a0a2e5ef137a45d0b4331681772c600f"
    }
}

{
    "m_SGVersion": 0,
    "m_Type": "UnityEditor.ShaderGraph.SamplerStateMaterialSlot",
    "m_ObjectId": "3c8038287e79ef8bb1319d4606ced0f7",
    "m_Id": 3,
    "m_DisplayName": "Sampler",
    "m_SlotType": 0,
    "m_Hidden": false,
    "m_ShaderOutputName": "Sampler",
    "m_StageCapability": 3,
    "m_BareResource": false
}

{
    "m_SGVersion": 0,
    "m_Type": "UnityEditor.ShaderGraph.Vector1MaterialSlot",
    "m_ObjectId": "401295488865499fbd79dbbb95ac296d",
    "m_Id": 0,
    "m_DisplayName": "HeightScale",
    "m_SlotType": 1,
    "m_Hidden": false,
    "m_ShaderOutputName": "Out",
    "m_StageCapability": 3,
    "m_Value": 0.0,
    "m_DefaultValue": 0.0,
    "m_Labels": []
}

{
    "m_SGVersion": 0,
    "m_Type": "UnityEditor.ShaderGraph.Vector1MaterialSlot",
    "m_ObjectId": "40b0497303ef2f8d94319ed1bdf58ce1",
    "m_Id": 8,
    "m_DisplayName": "LODThreshold",
    "m_SlotType": 0,
    "m_Hidden": false,
    "m_ShaderOutputName": "LODThreshold",
    "m_StageCapability": 2,
    "m_Value": 0.0,
    "m_DefaultValue": 0.0,
    "m_Labels": [
        "X"
    ]
}

{
    "m_SGVersion": 0,
    "m_Type": "UnityEditor.ShaderGraph.Vector1MaterialSlot",
    "m_ObjectId": "429114cc6d3d6e8d8e5e531f1da6c9d0",
    "m_Id": 4,
    "m_DisplayName": "R",
    "m_SlotType": 1,
    "m_Hidden": false,
    "m_ShaderOutputName": "R",
    "m_StageCapability": 2,
    "m_Value": 0.0,
    "m_DefaultValue": 0.0,
    "m_Labels": [
        "X"
    ]
}

{
    "m_SGVersion": 0,
    "m_Type": "UnityEditor.ShaderGraph.SplitNode",
    "m_ObjectId": "46794b5049714e35a85c9f835fa837b3",
    "m_Group": {
        "m_Id": ""
    },
    "m_Name": "Split",
    "m_DrawState": {
        "m_Expanded": false,
        "m_Position": {
            "serializedVersion": "2",
            "x": -365.9999694824219,
            "y": -385.0,
            "width": 117.99995422363281,
            "height": 100.99996948242188
        }
    },
    "m_Slots": [
        {
            "m_Id": "2dee800358024c84911eee395c1428e6"
        },
        {
            "m_Id": "a0192c65d45f420f954e5819018d5e86"
        },
        {
            "m_Id": "6ee633d523364db3aec91a341b252601"
        },
        {
            "m_Id": "ed20efcfa21c49b4b95dacff3ee192ce"
        },
        {
            "m_Id": "4b7fe92876f140328cc136ee87c77282"
        }
    ],
    "synonyms": [
        "separate"
    ],
    "m_Precision": 0,
    "m_PreviewExpanded": true,
    "m_PreviewMode": 0,
    "m_CustomColors": {
        "m_SerializableColors": []
    }
}

{
    "m_SGVersion": 0,
    "m_Type": "UnityEditor.Rendering.HighDefinition.ShaderGraph.BuiltinData",
    "m_ObjectId": "46a6a10c06ec4888ae896b1772b5e6a5",
    "m_Distortion": false,
    "m_DistortionMode": 0,
    "m_DistortionDepthTest": true,
    "m_AddPrecomputedVelocity": false,
    "m_TransparentWritesMotionVec": false,
    "m_AlphaToMask": false,
    "m_DepthOffset": false,
    "m_ConservativeDepthOffset": false,
    "m_TransparencyFog": true,
    "m_AlphaTestShadow": false,
    "m_BackThenFrontRendering": false,
    "m_TransparentDepthPrepass": false,
    "m_TransparentDepthPostpass": false,
    "m_SupportLodCrossFade": false
}

{
    "m_SGVersion": 0,
    "m_Type": "UnityEditor.ShaderGraph.BlockNode",
    "m_ObjectId": "46f8e541459d42b8b6a0c82624b039a7",
    "m_Group": {
        "m_Id": ""
    },
    "m_Name": "SurfaceDescription.BaseColor",
    "m_DrawState": {
        "m_Expanded": true,
        "m_Position": {
            "serializedVersion": "2",
            "x": 0.0,
            "y": 0.0,
            "width": 0.0,
            "height": 0.0
        }
    },
    "m_Slots": [
        {
            "m_Id": "7aa3246e9f3a4f5bb4596873614ab7b0"
        }
    ],
    "synonyms": [],
    "m_Precision": 0,
    "m_PreviewExpanded": true,
    "m_PreviewMode": 0,
    "m_CustomColors": {
        "m_SerializableColors": []
    },
    "m_SerializedDescriptor": "SurfaceDescription.BaseColor"
}

{
    "m_SGVersion": 0,
    "m_Type": "UnityEditor.ShaderGraph.Texture2DInputMaterialSlot",
    "m_ObjectId": "48e2e4e1aba4ff87872f9dbcfde2c387",
    "m_Id": 1,
    "m_DisplayName": "Texture",
    "m_SlotType": 0,
    "m_Hidden": false,
    "m_ShaderOutputName": "Texture",
    "m_StageCapability": 3,
    "m_BareResource": false,
    "m_Texture": {
        "m_SerializedTexture": "{\"texture\":{\"fileID\":2800000,\"guid\":\"85cd4f2fa22caf147af8cfbe1d71bd77\",\"type\":3}}",
        "m_Guid": ""
    },
    "m_DefaultType": 0
}

{
    "m_SGVersion": 0,
    "m_Type": "UnityEditor.ShaderGraph.Vector1MaterialSlot",
    "m_ObjectId": "4ae24bd2798cc6819a3f98da354f05b6",
    "m_Id": 7,
    "m_DisplayName": "LOD",
    "m_SlotType": 0,
    "m_Hidden": false,
    "m_ShaderOutputName": "LOD",
    "m_StageCapability": 2,
    "m_Value": 0.0,
    "m_DefaultValue": 0.0,
    "m_Labels": [
        "X"
    ]
}

{
    "m_SGVersion": 0,
    "m_Type": "UnityEditor.ShaderGraph.Vector1MaterialSlot",
    "m_ObjectId": "4b7fe92876f140328cc136ee87c77282",
    "m_Id": 4,
    "m_DisplayName": "A",
    "m_SlotType": 1,
    "m_Hidden": false,
    "m_ShaderOutputName": "A",
    "m_StageCapability": 3,
    "m_Value": 0.0,
    "m_DefaultValue": 0.0,
    "m_Labels": []
}

{
    "m_SGVersion": 0,
    "m_Type": "UnityEditor.ShaderGraph.Vector1MaterialSlot",
    "m_ObjectId": "4f4e9747a4d5fc8aa71a02d579d0147f",
    "m_Id": 7,
    "m_DisplayName": "A",
    "m_SlotType": 1,
    "m_Hidden": false,
    "m_ShaderOutputName": "A",
    "m_StageCapability": 2,
    "m_Value": 0.0,
    "m_DefaultValue": 0.0,
    "m_Labels": [
        "X"
    ]
}

{
    "m_SGVersion": 0,
    "m_Type": "UnityEditor.ShaderGraph.DynamicVectorMaterialSlot",
    "m_ObjectId": "528f099ddffc9c80913fdff2d0765655",
    "m_Id": 1,
    "m_DisplayName": "B",
    "m_SlotType": 0,
    "m_Hidden": false,
    "m_ShaderOutputName": "B",
    "m_StageCapability": 3,
    "m_Value": {
        "x": 0.125,
        "y": 1.0,
        "z": 1.0,
        "w": 1.0
    },
    "m_DefaultValue": {
        "x": 0.0,
        "y": 0.0,
        "z": 0.0,
        "w": 0.0
    }
}

{
    "m_SGVersion": 0,
    "m_Type": "UnityEditor.ShaderGraph.SampleTexture2DNode",
    "m_ObjectId": "52f95bbf6ba2588481637eb770d6e069",
    "m_Group": {
        "m_Id": ""
    },
    "m_Name": "Sample Texture 2D",
    "m_DrawState": {
        "m_Expanded": true,
        "m_Position": {
            "serializedVersion": "2",
            "x": -1065.0,
            "y": -10.0,
            "width": 208.0,
            "height": 435.0000305175781
        }
    },
    "m_Slots": [
        {
            "m_Id": "957fc340e8591c8f8ad1614e63e6fc1e"
        },
        {
            "m_Id": "9fe85c329139b982bc3111538fd6d21e"
        },
        {
            "m_Id": "03d15bac7eb37b8f815109f7e962e8b6"
        },
        {
            "m_Id": "b199fdc42f7d1a808cc12164c9e83b70"
        },
        {
            "m_Id": "f80680320a21ad8faaeb159ee41cffd5"
        },
        {
            "m_Id": "a08e946aacd2058e82b7d64da557ed96"
        },
        {
            "m_Id": "21cf2f7cde6c04828018c418377393ee"
        },
        {
            "m_Id": "a1719d40742945859e2237395812c954"
        }
    ],
    "synonyms": [],
    "m_Precision": 0,
    "m_PreviewExpanded": true,
    "m_PreviewMode": 0,
    "m_CustomColors": {
        "m_SerializableColors": []
    },
    "m_TextureType": 0,
    "m_NormalMapSpace": 0,
    "m_EnableGlobalMipBias": true
}

{
    "m_SGVersion": 0,
    "m_Type": "UnityEditor.ShaderGraph.Vector2MaterialSlot",
    "m_ObjectId": "56a4a6c2f53f4c899478b689fa85ee76",
    "m_Id": 12,
    "m_DisplayName": "PrimitiveSize",
    "m_SlotType": 0,
    "m_Hidden": false,
    "m_ShaderOutputName": "PrimitiveSize",
    "m_StageCapability": 2,
    "m_Value": {
        "x": 1.0,
        "y": 1.0
    },
    "m_DefaultValue": {
        "x": 0.0,
        "y": 0.0
    },
    "m_Labels": []
}

{
    "m_SGVersion": 0,
    "m_Type": "UnityEditor.ShaderGraph.BlockNode",
    "m_ObjectId": "58669f4595a2420581bde57bea2a17f7",
    "m_Group": {
        "m_Id": ""
    },
    "m_Name": "SurfaceDescription.DepthOffset",
    "m_DrawState": {
        "m_Expanded": true,
        "m_Position": {
            "serializedVersion": "2",
            "x": 0.0,
            "y": 0.0,
            "width": 0.0,
            "height": 0.0
        }
    },
    "m_Slots": [
        {
            "m_Id": "d87a196dc938458bb8611747e8fc22d7"
        }
    ],
    "synonyms": [],
    "m_Precision": 0,
    "m_PreviewExpanded": true,
    "m_PreviewMode": 0,
    "m_CustomColors": {
        "m_SerializableColors": []
    },
    "m_SerializedDescriptor": "SurfaceDescription.DepthOffset"
}

{
    "m_SGVersion": 0,
    "m_Type": "UnityEditor.ShaderGraph.Vector2MaterialSlot",
    "m_ObjectId": "58d3ab7206494bad911657da3273677a",
    "m_Id": 0,
    "m_DisplayName": "Smoothness",
    "m_SlotType": 1,
    "m_Hidden": false,
    "m_ShaderOutputName": "Out",
    "m_StageCapability": 3,
    "m_Value": {
        "x": 0.0,
        "y": 0.0
    },
    "m_DefaultValue": {
        "x": 0.0,
        "y": 0.0
    },
    "m_Labels": []
}

{
    "m_SGVersion": 0,
    "m_Type": "UnityEditor.ShaderGraph.Vector3MaterialSlot",
    "m_ObjectId": "5ad473097b61df89bebb501c15b295db",
    "m_Id": 2,
    "m_DisplayName": "Out",
    "m_SlotType": 1,
    "m_Hidden": false,
    "m_ShaderOutputName": "Out",
    "m_StageCapability": 3,
    "m_Value": {
        "x": 0.0,
        "y": 0.0,
        "z": 0.0
    },
    "m_DefaultValue": {
        "x": 0.0,
        "y": 0.0,
        "z": 0.0
    },
    "m_Labels": [
        "X",
        "Y",
        "Z"
    ]
}

{
    "m_SGVersion": 0,
    "m_Type": "UnityEditor.ShaderGraph.BlockNode",
    "m_ObjectId": "5b4b3b00fed94a918912312d04f1abdf",
    "m_Group": {
        "m_Id": ""
    },
    "m_Name": "SurfaceDescription.Metallic",
    "m_DrawState": {
        "m_Expanded": true,
        "m_Position": {
            "serializedVersion": "2",
            "x": 0.0,
            "y": 0.0,
            "width": 0.0,
            "height": 0.0
        }
    },
    "m_Slots": [
        {
            "m_Id": "8f76d1f5c2fc4752b751de221605488d"
        }
    ],
    "synonyms": [],
    "m_Precision": 0,
    "m_PreviewExpanded": true,
    "m_PreviewMode": 0,
    "m_CustomColors": {
        "m_SerializableColors": []
    },
    "m_SerializedDescriptor": "SurfaceDescription.Metallic"
}

{
    "m_SGVersion": 0,
    "m_Type": "UnityEditor.ShaderGraph.BlockNode",
    "m_ObjectId": "5cd1f0cbd1da47bcb12f28f735568345",
    "m_Group": {
        "m_Id": ""
    },
    "m_Name": "VertexDescription.Tangent",
    "m_DrawState": {
        "m_Expanded": true,
        "m_Position": {
            "serializedVersion": "2",
            "x": 0.0,
            "y": 0.0,
            "width": 0.0,
            "height": 0.0
        }
    },
    "m_Slots": [
        {
            "m_Id": "85227ebba90d4dcc8ce2f910fea26d30"
        }
    ],
    "synonyms": [],
    "m_Precision": 0,
    "m_PreviewExpanded": true,
    "m_PreviewMode": 0,
    "m_CustomColors": {
        "m_SerializableColors": []
    },
    "m_SerializedDescriptor": "VertexDescription.Tangent"
}

{
    "m_SGVersion": 0,
    "m_Type": "UnityEditor.ShaderGraph.DynamicVectorMaterialSlot",
    "m_ObjectId": "5ff87c2b863ac483acdc472759f231fc",
    "m_Id": 0,
    "m_DisplayName": "A",
    "m_SlotType": 0,
    "m_Hidden": false,
    "m_ShaderOutputName": "A",
    "m_StageCapability": 3,
    "m_Value": {
        "x": 0.6499999761581421,
        "y": 0.0,
        "z": 0.0,
        "w": 0.0
    },
    "m_DefaultValue": {
        "x": 0.0,
        "y": 0.0,
        "z": 0.0,
        "w": 0.0
    }
}

{
    "m_SGVersion": 0,
    "m_Type": "UnityEditor.ShaderGraph.NormalMaterialSlot",
    "m_ObjectId": "63bbf6ad6f62447d94017cf935019f88",
    "m_Id": 0,
    "m_DisplayName": "Normal (Tangent Space)",
    "m_SlotType": 0,
    "m_Hidden": false,
    "m_ShaderOutputName": "NormalTS",
    "m_StageCapability": 2,
    "m_Value": {
        "x": 0.0,
        "y": 0.0,
        "z": 0.0
    },
    "m_DefaultValue": {
        "x": 0.0,
        "y": 0.0,
        "z": 0.0
    },
    "m_Labels": [],
    "m_Space": 3
}

{
    "m_SGVersion": 0,
    "m_Type": "UnityEditor.ShaderGraph.SamplerStateMaterialSlot",
    "m_ObjectId": "642902ccbe75ab80a5c3d115d9b92d87",
    "m_Id": 3,
    "m_DisplayName": "HeightmapSampler",
    "m_SlotType": 0,
    "m_Hidden": false,
    "m_ShaderOutputName": "HeightmapSampler",
    "m_StageCapability": 3,
    "m_BareResource": false
}

{
    "m_SGVersion": 0,
    "m_Type": "UnityEditor.ShaderGraph.MultiplyNode",
    "m_ObjectId": "67691838170c4f209f683efcb0172c05",
    "m_Group": {
        "m_Id": ""
    },
    "m_Name": "Multiply",
    "m_DrawState": {
        "m_Expanded": true,
        "m_Position": {
            "serializedVersion": "2",
            "x": -679.0000610351563,
            "y": 14.0,
            "width": 207.99996948242188,
            "height": 302.0
        }
    },
    "m_Slots": [
        {
            "m_Id": "174b3ec1fc4d47bda04a4d05d1d18ecd"
        },
        {
            "m_Id": "1b769acd0190444fa3bcf9cdd62ab35a"
        },
        {
            "m_Id": "c169bbcb44e9439aa1198672fa365abd"
        }
    ],
    "synonyms": [
        "multiplication",
        "times",
        "x"
    ],
    "m_Precision": 0,
    "m_PreviewExpanded": true,
    "m_PreviewMode": 0,
    "m_CustomColors": {
        "m_SerializableColors": []
    }
}

{
    "m_SGVersion": 0,
    "m_Type": "UnityEditor.ShaderGraph.BlockNode",
    "m_ObjectId": "6b98f048774e4467bcd81765dd8e18ac",
    "m_Group": {
        "m_Id": ""
    },
    "m_Name": "SurfaceDescription.Alpha",
    "m_DrawState": {
        "m_Expanded": true,
        "m_Position": {
            "serializedVersion": "2",
            "x": 0.0,
            "y": 0.0,
            "width": 0.0,
            "height": 0.0
        }
    },
    "m_Slots": [
        {
            "m_Id": "949e1a25994f493fa0f3199003af5822"
        }
    ],
    "synonyms": [],
    "m_Precision": 0,
    "m_PreviewExpanded": true,
    "m_PreviewMode": 0,
    "m_CustomColors": {
        "m_SerializableColors": []
    },
    "m_SerializedDescriptor": "SurfaceDescription.Alpha"
}

{
    "m_SGVersion": 0,
    "m_Type": "UnityEditor.ShaderGraph.UVMaterialSlot",
    "m_ObjectId": "6ceeb851853af7819bbbcee6a2198f09",
    "m_Id": 2,
    "m_DisplayName": "UV",
    "m_SlotType": 0,
    "m_Hidden": false,
    "m_ShaderOutputName": "UV",
    "m_StageCapability": 3,
    "m_Value": {
        "x": 0.0,
        "y": 0.0
    },
    "m_DefaultValue": {
        "x": 0.0,
        "y": 0.0
    },
    "m_Labels": [
        "X",
        "Y"
    ],
    "m_Channel": 0
}

{
    "m_SGVersion": 0,
    "m_Type": "UnityEditor.ShaderGraph.Vector1MaterialSlot",
    "m_ObjectId": "6ee633d523364db3aec91a341b252601",
    "m_Id": 2,
    "m_DisplayName": "G",
    "m_SlotType": 1,
    "m_Hidden": false,
    "m_ShaderOutputName": "G",
    "m_StageCapability": 3,
    "m_Value": 0.0,
    "m_DefaultValue": 0.0,
    "m_Labels": []
}

{
    "m_SGVersion": 0,
    "m_Type": "UnityEditor.ShaderGraph.BlockNode",
    "m_ObjectId": "72994b0d48144be88e70a73e68d2e99f",
    "m_Group": {
        "m_Id": ""
    },
    "m_Name": "SurfaceDescription.BentNormal",
    "m_DrawState": {
        "m_Expanded": true,
        "m_Position": {
            "serializedVersion": "2",
            "x": 0.0,
            "y": 0.0,
            "width": 0.0,
            "height": 0.0
        }
    },
    "m_Slots": [
        {
            "m_Id": "2126690ea4104569aee5a230e6287e98"
        }
    ],
    "synonyms": [],
    "m_Precision": 0,
    "m_PreviewExpanded": true,
    "m_PreviewMode": 0,
    "m_CustomColors": {
        "m_SerializableColors": []
    },
    "m_SerializedDescriptor": "SurfaceDescription.BentNormal"
}

{
    "m_SGVersion": 0,
    "m_Type": "UnityEditor.ShaderGraph.Vector2MaterialSlot",
    "m_ObjectId": "730ee8ed9eabe88eb7f4d5bdd250eca4",
    "m_Id": 1,
    "m_DisplayName": "ParallaxUVs",
    "m_SlotType": 1,
    "m_Hidden": false,
    "m_ShaderOutputName": "ParallaxUVs",
    "m_StageCapability": 2,
    "m_Value": {
        "x": 0.0,
        "y": 0.0
    },
    "m_DefaultValue": {
        "x": 0.0,
        "y": 0.0
    },
    "m_Labels": [
        "X",
        "Y"
    ]
}

{
    "m_SGVersion": 0,
    "m_Type": "UnityEditor.ShaderGraph.UVMaterialSlot",
    "m_ObjectId": "7a7abb7d6f1ecb888c38fc8a089daed7",
    "m_Id": 2,
    "m_DisplayName": "UV",
    "m_SlotType": 0,
    "m_Hidden": false,
    "m_ShaderOutputName": "UV",
    "m_StageCapability": 3,
    "m_Value": {
        "x": 0.0,
        "y": 0.0
    },
    "m_DefaultValue": {
        "x": 0.0,
        "y": 0.0
    },
    "m_Labels": [
        "X",
        "Y"
    ],
    "m_Channel": 0
}

{
    "m_SGVersion": 0,
    "m_Type": "UnityEditor.ShaderGraph.ColorRGBMaterialSlot",
    "m_ObjectId": "7aa3246e9f3a4f5bb4596873614ab7b0",
    "m_Id": 0,
    "m_DisplayName": "Base Color",
    "m_SlotType": 0,
    "m_Hidden": false,
    "m_ShaderOutputName": "BaseColor",
    "m_StageCapability": 2,
    "m_Value": {
        "x": 0.7353569269180298,
        "y": 0.7353569269180298,
        "z": 0.7353569269180298
    },
    "m_DefaultValue": {
        "x": 0.0,
        "y": 0.0,
        "z": 0.0
    },
    "m_Labels": [],
    "m_ColorMode": 0,
    "m_DefaultColor": {
        "r": 0.5,
        "g": 0.5,
        "b": 0.5,
        "a": 1.0
    }
}

{
    "m_SGVersion": 0,
    "m_Type": "UnityEditor.ShaderGraph.Vector1MaterialSlot",
    "m_ObjectId": "7df88753844a0d8cbace7f45b608aef3",
    "m_Id": 4,
    "m_DisplayName": "Amplitude",
    "m_SlotType": 0,
    "m_Hidden": false,
    "m_ShaderOutputName": "Amplitude",
    "m_StageCapability": 2,
    "m_Value": 0.675000011920929,
    "m_DefaultValue": 1.0,
    "m_Labels": [
        "X"
    ]
}

{
    "m_SGVersion": 0,
    "m_Type": "UnityEditor.ShaderGraph.Texture2DInputMaterialSlot",
    "m_ObjectId": "7e7d566d52d12a80be5f9b14e2c5cdb5",
    "m_Id": 2,
    "m_DisplayName": "Heightmap",
    "m_SlotType": 0,
    "m_Hidden": false,
    "m_ShaderOutputName": "Heightmap",
    "m_StageCapability": 2,
    "m_BareResource": false,
    "m_Texture": {
        "m_SerializedTexture": "{\"texture\":{\"fileID\":2800000,\"guid\":\"85cd4f2fa22caf147af8cfbe1d71bd77\",\"type\":3}}",
        "m_Guid": ""
    },
    "m_DefaultType": 1
}

{
    "m_SGVersion": 0,
    "m_Type": "UnityEditor.ShaderGraph.Vector1MaterialSlot",
    "m_ObjectId": "7f34c89a26976587bd625e1c98b6258b",
    "m_Id": 0,
    "m_DisplayName": "PixelDepthOffset",
    "m_SlotType": 1,
    "m_Hidden": false,
    "m_ShaderOutputName": "PixelDepthOffset",
    "m_StageCapability": 2,
    "m_Value": 0.0,
    "m_DefaultValue": 0.0,
    "m_Labels": [
        "X"
    ]
}

{
    "m_SGVersion": 0,
    "m_Type": "UnityEditor.ShaderGraph.Vector1MaterialSlot",
    "m_ObjectId": "815cdabbeca349daaee0deb95a36cdb4",
    "m_Id": 1,
    "m_DisplayName": "X",
    "m_SlotType": 0,
    "m_Hidden": false,
    "m_ShaderOutputName": "X",
    "m_StageCapability": 3,
    "m_Value": 0.6000000238418579,
    "m_DefaultValue": 0.0,
    "m_Labels": []
}

{
    "m_SGVersion": 0,
    "m_Type": "UnityEditor.ShaderGraph.TangentMaterialSlot",
    "m_ObjectId": "85227ebba90d4dcc8ce2f910fea26d30",
    "m_Id": 0,
    "m_DisplayName": "Tangent",
    "m_SlotType": 0,
    "m_Hidden": false,
    "m_ShaderOutputName": "Tangent",
    "m_StageCapability": 1,
    "m_Value": {
        "x": 0.0,
        "y": 0.0,
        "z": 0.0
    },
    "m_DefaultValue": {
        "x": 0.0,
        "y": 0.0,
        "z": 0.0
    },
    "m_Labels": [],
    "m_Space": 0
}

{
    "m_SGVersion": 0,
    "m_Type": "UnityEditor.Rendering.HighDefinition.ShaderGraph.LightingData",
    "m_ObjectId": "8dcd094ffebf493aa3201775e96956c5",
    "m_NormalDropOffSpace": 0,
    "m_BlendPreserveSpecular": true,
    "m_ReceiveDecals": true,
    "m_ReceiveSSR": true,
    "m_ReceiveSSRTransparent": false,
    "m_SpecularAA": false,
    "m_SpecularOcclusionMode": 0,
    "m_OverrideBakedGI": false
}

{
    "m_SGVersion": 0,
    "m_Type": "UnityEditor.ShaderGraph.Vector1MaterialSlot",
    "m_ObjectId": "8f4bc04dbc8941f188ef701af02be772",
    "m_Id": 0,
    "m_DisplayName": "Ambient Occlusion",
    "m_SlotType": 0,
    "m_Hidden": false,
    "m_ShaderOutputName": "Occlusion",
    "m_StageCapability": 2,
    "m_Value": 1.0,
    "m_DefaultValue": 1.0,
    "m_Labels": []
}

{
    "m_SGVersion": 0,
    "m_Type": "UnityEditor.ShaderGraph.Vector3MaterialSlot",
    "m_ObjectId": "8f6f7133dbd46d89beb1766f5281abb3",
    "m_Id": 0,
    "m_DisplayName": "In",
    "m_SlotType": 0,
    "m_Hidden": false,
    "m_ShaderOutputName": "In",
    "m_StageCapability": 3,
    "m_Value": {
        "x": 0.0,
        "y": 0.0,
        "z": 1.0
    },
    "m_DefaultValue": {
        "x": 0.0,
        "y": 0.0,
        "z": 0.0
    },
    "m_Labels": [
        "X",
        "Y",
        "Z"
    ]
}

{
    "m_SGVersion": 0,
    "m_Type": "UnityEditor.ShaderGraph.Vector1MaterialSlot",
    "m_ObjectId": "8f76d1f5c2fc4752b751de221605488d",
    "m_Id": 0,
    "m_DisplayName": "Metallic",
    "m_SlotType": 0,
    "m_Hidden": false,
    "m_ShaderOutputName": "Metallic",
    "m_StageCapability": 2,
    "m_Value": 0.0,
    "m_DefaultValue": 0.0,
    "m_Labels": []
}

{
    "m_SGVersion": 0,
    "m_Type": "UnityEditor.ShaderGraph.BlockNode",
    "m_ObjectId": "90140e9935f54012954b3d221dd34211",
    "m_Group": {
        "m_Id": ""
    },
    "m_Name": "SurfaceDescription.NormalTS",
    "m_DrawState": {
        "m_Expanded": true,
        "m_Position": {
            "serializedVersion": "2",
            "x": 0.0,
            "y": 0.0,
            "width": 0.0,
            "height": 0.0
        }
    },
    "m_Slots": [
        {
            "m_Id": "63bbf6ad6f62447d94017cf935019f88"
        }
    ],
    "synonyms": [],
    "m_Precision": 0,
    "m_PreviewExpanded": true,
    "m_PreviewMode": 0,
    "m_CustomColors": {
        "m_SerializableColors": []
    },
    "m_SerializedDescriptor": "SurfaceDescription.NormalTS"
}

{
    "m_SGVersion": 0,
    "m_Type": "UnityEditor.ShaderGraph.SamplerStateMaterialSlot",
    "m_ObjectId": "948c2a3f0bd524829974a3b71b359572",
    "m_Id": 3,
    "m_DisplayName": "Sampler",
    "m_SlotType": 0,
    "m_Hidden": false,
    "m_ShaderOutputName": "Sampler",
    "m_StageCapability": 3,
    "m_BareResource": false
}

{
    "m_SGVersion": 0,
    "m_Type": "UnityEditor.ShaderGraph.Vector1MaterialSlot",
    "m_ObjectId": "949e1a25994f493fa0f3199003af5822",
    "m_Id": 0,
    "m_DisplayName": "Alpha",
    "m_SlotType": 0,
    "m_Hidden": false,
    "m_ShaderOutputName": "Alpha",
    "m_StageCapability": 2,
    "m_Value": 1.0,
    "m_DefaultValue": 1.0,
    "m_Labels": []
}

{
    "m_SGVersion": 0,
    "m_Type": "UnityEditor.ShaderGraph.Vector4MaterialSlot",
    "m_ObjectId": "957fc340e8591c8f8ad1614e63e6fc1e",
    "m_Id": 0,
    "m_DisplayName": "RGBA",
    "m_SlotType": 1,
    "m_Hidden": false,
    "m_ShaderOutputName": "RGBA",
    "m_StageCapability": 2,
    "m_Value": {
        "x": 0.0,
        "y": 0.0,
        "z": 0.0,
        "w": 0.0
    },
    "m_DefaultValue": {
        "x": 0.0,
        "y": 0.0,
        "z": 0.0,
        "w": 0.0
    },
    "m_Labels": []
}

{
    "m_SGVersion": 0,
    "m_Type": "UnityEditor.Rendering.HighDefinition.ShaderGraph.SystemData",
    "m_ObjectId": "9a5e47cb830343878e363f0ff418245d",
    "m_MaterialNeedsUpdateHash": 0,
    "m_SurfaceType": 0,
    "m_RenderingPass": 1,
    "m_BlendMode": 0,
    "m_ZTest": 4,
    "m_ZWrite": false,
    "m_TransparentCullMode": 2,
    "m_OpaqueCullMode": 2,
    "m_SortPriority": 0,
    "m_AlphaTest": false,
    "m_TransparentDepthPrepass": false,
    "m_TransparentDepthPostpass": false,
    "m_SupportLodCrossFade": false,
    "m_DoubleSidedMode": 0,
    "m_DOTSInstancing": false,
    "m_CustomVelocity": false,
    "m_Tessellation": false,
    "m_TessellationMode": 0,
    "m_TessellationFactorMinDistance": 20.0,
    "m_TessellationFactorMaxDistance": 50.0,
    "m_TessellationFactorTriangleSize": 100.0,
    "m_TessellationShapeFactor": 0.75,
    "m_TessellationBackFaceCullEpsilon": -0.25,
    "m_TessellationMaxDisplacement": 0.009999999776482582,
    "m_Version": 1,
    "inspectorFoldoutMask": 0
}

{
    "m_SGVersion": 0,
    "m_Type": "UnityEditor.ShaderGraph.Vector1MaterialSlot",
    "m_ObjectId": "9da81beeff23558a8f3f896df0731b43",
    "m_Id": 5,
    "m_DisplayName": "G",
    "m_SlotType": 1,
    "m_Hidden": false,
    "m_ShaderOutputName": "G",
    "m_StageCapability": 2,
    "m_Value": 0.0,
    "m_DefaultValue": 0.0,
    "m_Labels": [
        "X"
    ]
}

{
    "m_SGVersion": 0,
    "m_Type": "UnityEditor.ShaderGraph.Vector1MaterialSlot",
    "m_ObjectId": "9fc46446491cc28b85cba2a471d3f82d",
    "m_Id": 4,
    "m_DisplayName": "R",
    "m_SlotType": 1,
    "m_Hidden": false,
    "m_ShaderOutputName": "R",
    "m_StageCapability": 2,
    "m_Value": 0.0,
    "m_DefaultValue": 0.0,
    "m_Labels": [
        "X"
    ]
}

{
    "m_SGVersion": 0,
    "m_Type": "UnityEditor.ShaderGraph.Vector1MaterialSlot",
    "m_ObjectId": "9fe85c329139b982bc3111538fd6d21e",
    "m_Id": 4,
    "m_DisplayName": "R",
    "m_SlotType": 1,
    "m_Hidden": false,
    "m_ShaderOutputName": "R",
    "m_StageCapability": 2,
    "m_Value": 0.0,
    "m_DefaultValue": 0.0,
    "m_Labels": [
        "X"
    ]
}

{
    "m_SGVersion": 0,
    "m_Type": "UnityEditor.ShaderGraph.Vector1MaterialSlot",
    "m_ObjectId": "a0192c65d45f420f954e5819018d5e86",
    "m_Id": 1,
    "m_DisplayName": "R",
    "m_SlotType": 1,
    "m_Hidden": false,
    "m_ShaderOutputName": "R",
    "m_StageCapability": 3,
    "m_Value": 0.0,
    "m_DefaultValue": 0.0,
    "m_Labels": []
}

{
    "m_SGVersion": 0,
    "m_Type": "UnityEditor.ShaderGraph.Texture2DInputMaterialSlot",
    "m_ObjectId": "a08e946aacd2058e82b7d64da557ed96",
    "m_Id": 1,
    "m_DisplayName": "Texture",
    "m_SlotType": 0,
    "m_Hidden": false,
    "m_ShaderOutputName": "Texture",
    "m_StageCapability": 3,
    "m_BareResource": false,
    "m_Texture": {
        "m_SerializedTexture": "{\"texture\":{\"fileID\":2800000,\"guid\":\"709db9854276b994fa766b05b7d51cea\",\"type\":3}}",
        "m_Guid": ""
    },
    "m_DefaultType": 0
}

{
    "m_SGVersion": 0,
    "m_Type": "UnityEditor.ShaderGraph.DynamicVectorMaterialSlot",
    "m_ObjectId": "a08e954681ac6e8bbbb2c4940f7179ab",
    "m_Id": 3,
    "m_DisplayName": "Out",
    "m_SlotType": 1,
    "m_Hidden": false,
    "m_ShaderOutputName": "Out",
    "m_StageCapability": 3,
    "m_Value": {
        "x": 0.0,
        "y": 0.0,
        "z": 0.0,
        "w": 0.0
    },
    "m_DefaultValue": {
        "x": 0.0,
        "y": 0.0,
        "z": 0.0,
        "w": 0.0
    }
}

{
    "m_SGVersion": 1,
    "m_Type": "UnityEditor.ShaderGraph.Internal.Vector2ShaderProperty",
    "m_ObjectId": "a0a2e5ef137a45d0b4331681772c600f",
    "m_Guid": {
        "m_GuidSerialized": "a493eff0-37e5-4a27-a4ff-92aac04f7ce2"
    },
    "m_Name": "Smoothness",
    "m_DefaultRefNameVersion": 1,
    "m_RefNameGeneratedByDisplayName": "Smoothness",
    "m_DefaultReferenceName": "_Smoothness",
    "m_OverrideReferenceName": "",
    "m_GeneratePropertyBlock": true,
    "m_UseCustomSlotLabel": false,
    "m_CustomSlotLabel": "",
    "m_Precision": 0,
    "overrideHLSLDeclaration": false,
    "hlslDeclarationOverride": 0,
    "m_Hidden": false,
    "m_Value": {
        "x": 0.6499999761581421,
        "y": 0.11999999731779099,
        "z": 0.0,
        "w": 0.0
    }
}

{
    "m_SGVersion": 0,
    "m_Type": "UnityEditor.ShaderGraph.Vector1MaterialSlot",
    "m_ObjectId": "a0d9ebb408a3158dbd17823c4a45d016",
    "m_Id": 5,
    "m_DisplayName": "Steps",
    "m_SlotType": 0,
    "m_Hidden": false,
    "m_ShaderOutputName": "Steps",
    "m_StageCapability": 2,
    "m_Value": 10.0,
    "m_DefaultValue": 5.0,
    "m_Labels": [
        "X"
    ]
}

{
    "m_SGVersion": 0,
    "m_Type": "UnityEditor.ShaderGraph.SamplerStateMaterialSlot",
    "m_ObjectId": "a1719d40742945859e2237395812c954",
    "m_Id": 3,
    "m_DisplayName": "Sampler",
    "m_SlotType": 0,
    "m_Hidden": false,
    "m_ShaderOutputName": "Sampler",
    "m_StageCapability": 3,
    "m_BareResource": false
}

{
    "m_SGVersion": 0,
    "m_Type": "UnityEditor.ShaderGraph.Vector1MaterialSlot",
    "m_ObjectId": "a1b5d025ee2167878a5cbc69e205e576",
    "m_Id": 7,
    "m_DisplayName": "A",
    "m_SlotType": 1,
    "m_Hidden": false,
    "m_ShaderOutputName": "A",
    "m_StageCapability": 2,
    "m_Value": 0.0,
    "m_DefaultValue": 0.0,
    "m_Labels": [
        "X"
    ]
}

{
    "m_SGVersion": 0,
    "m_Type": "UnityEditor.ShaderGraph.Vector4MaterialSlot",
    "m_ObjectId": "a32adb8e85009183af8daa6ad5fa94ce",
    "m_Id": 0,
    "m_DisplayName": "RGBA",
    "m_SlotType": 1,
    "m_Hidden": false,
    "m_ShaderOutputName": "RGBA",
    "m_StageCapability": 2,
    "m_Value": {
        "x": 0.0,
        "y": 0.0,
        "z": 0.0,
        "w": 0.0
    },
    "m_DefaultValue": {
        "x": 0.0,
        "y": 0.0,
        "z": 0.0,
        "w": 0.0
    },
    "m_Labels": []
}

{
    "m_SGVersion": 0,
    "m_Type": "UnityEditor.ShaderGraph.CategoryData",
    "m_ObjectId": "a6102ed26a2e40ce8c25be4fd963cc6c",
    "m_Name": "",
    "m_ChildObjectList": [
        {
            "m_Id": "d1a8331ca0c5403cb32e92a948effa27"
        },
        {
            "m_Id": "a0a2e5ef137a45d0b4331681772c600f"
        }
    ]
}

{
    "m_SGVersion": 0,
    "m_Type": "UnityEditor.ShaderGraph.BlockNode",
    "m_ObjectId": "a61ee46979ea4f7ea0af517adf2e0070",
    "m_Group": {
        "m_Id": ""
    },
    "m_Name": "SurfaceDescription.Occlusion",
    "m_DrawState": {
        "m_Expanded": true,
        "m_Position": {
            "serializedVersion": "2",
            "x": 0.0,
            "y": 0.0,
            "width": 0.0,
            "height": 0.0
        }
    },
    "m_Slots": [
        {
            "m_Id": "8f4bc04dbc8941f188ef701af02be772"
        }
    ],
    "synonyms": [],
    "m_Precision": 0,
    "m_PreviewExpanded": true,
    "m_PreviewMode": 0,
    "m_CustomColors": {
        "m_SerializableColors": []
    },
    "m_SerializedDescriptor": "SurfaceDescription.Occlusion"
}

{
    "m_SGVersion": 0,
    "m_Type": "UnityEditor.Rendering.HighDefinition.ShaderGraph.SystemData",
    "m_ObjectId": "a662eb3d8fe947db8a1680c4d1836710",
    "m_MaterialNeedsUpdateHash": 529,
    "m_SurfaceType": 0,
    "m_RenderingPass": 1,
    "m_BlendMode": 0,
    "m_ZTest": 4,
    "m_ZWrite": false,
    "m_TransparentCullMode": 2,
    "m_OpaqueCullMode": 2,
    "m_SortPriority": 0,
    "m_AlphaTest": false,
    "m_TransparentDepthPrepass": false,
    "m_TransparentDepthPostpass": false,
    "m_SupportLodCrossFade": false,
    "m_DoubleSidedMode": 0,
    "m_DOTSInstancing": false,
    "m_CustomVelocity": false,
    "m_Tessellation": false,
    "m_TessellationMode": 0,
    "m_TessellationFactorMinDistance": 20.0,
    "m_TessellationFactorMaxDistance": 50.0,
    "m_TessellationFactorTriangleSize": 100.0,
    "m_TessellationShapeFactor": 0.75,
    "m_TessellationBackFaceCullEpsilon": -0.25,
    "m_TessellationMaxDisplacement": 0.009999999776482582,
    "m_Version": 1,
    "inspectorFoldoutMask": 0
}

{
    "m_SGVersion": 0,
    "m_Type": "UnityEditor.Rendering.HighDefinition.ShaderGraph.BuiltinData",
    "m_ObjectId": "ab8638dcc9d84ca6a879d5ce45900bde",
    "m_Distortion": false,
    "m_DistortionMode": 0,
    "m_DistortionDepthTest": true,
    "m_AddPrecomputedVelocity": false,
    "m_TransparentWritesMotionVec": false,
    "m_AlphaToMask": false,
    "m_DepthOffset": true,
    "m_ConservativeDepthOffset": false,
    "m_TransparencyFog": true,
    "m_AlphaTestShadow": false,
    "m_BackThenFrontRendering": false,
    "m_TransparentDepthPrepass": false,
    "m_TransparentDepthPostpass": false,
    "m_SupportLodCrossFade": false
}

{
    "m_SGVersion": 0,
    "m_Type": "UnityEditor.ShaderGraph.Vector1MaterialSlot",
    "m_ObjectId": "ac85a496f8039a8489efcdf4e5803cce",
    "m_Id": 6,
    "m_DisplayName": "B",
    "m_SlotType": 1,
    "m_Hidden": false,
    "m_ShaderOutputName": "B",
    "m_StageCapability": 2,
    "m_Value": 0.0,
    "m_DefaultValue": 0.0,
    "m_Labels": [
        "X"
    ]
}

{
    "m_SGVersion": 0,
    "m_Type": "UnityEditor.ShaderGraph.SampleTexture2DNode",
    "m_ObjectId": "ade39127e9873a8e927ff8c0d7125980",
    "m_Group": {
        "m_Id": ""
    },
    "m_Name": "Sample Texture 2D",
    "m_DrawState": {
        "m_Expanded": true,
        "m_Position": {
            "serializedVersion": "2",
            "x": -427.0,
            "y": 584.0,
            "width": 208.0,
            "height": 433.0
        }
    },
    "m_Slots": [
        {
            "m_Id": "37cdb4d834f3b988aed2604f0de3eb6f"
        },
        {
            "m_Id": "429114cc6d3d6e8d8e5e531f1da6c9d0"
        },
        {
            "m_Id": "b9889bbe978c198485ee84d5c84dc50b"
        },
        {
            "m_Id": "d51aa5ab64dcec8b9125fc1484c6b7c3"
        },
        {
            "m_Id": "f9eb776ca594d3859e084470e0dd5f03"
        },
        {
            "m_Id": "48e2e4e1aba4ff87872f9dbcfde2c387"
        },
        {
            "m_Id": "c0abd472ee04d3809037ec4fb0a692d2"
        },
        {
            "m_Id": "3c8038287e79ef8bb1319d4606ced0f7"
        }
    ],
    "synonyms": [],
    "m_Precision": 0,
    "m_PreviewExpanded": true,
    "m_PreviewMode": 0,
    "m_CustomColors": {
        "m_SerializableColors": []
    },
    "m_TextureType": 0,
    "m_NormalMapSpace": 0,
    "m_EnableGlobalMipBias": true
}

{
    "m_SGVersion": 0,
    "m_Type": "UnityEditor.ShaderGraph.Vector1MaterialSlot",
    "m_ObjectId": "b0a469e4d6714421a4f0cd9eb33a0081",
    "m_Id": 0,
    "m_DisplayName": "Smoothness",
    "m_SlotType": 0,
    "m_Hidden": false,
    "m_ShaderOutputName": "Smoothness",
    "m_StageCapability": 2,
    "m_Value": 0.5,
    "m_DefaultValue": 0.5,
    "m_Labels": []
}

{
    "m_SGVersion": 0,
    "m_Type": "UnityEditor.ShaderGraph.Vector1MaterialSlot",
    "m_ObjectId": "b199fdc42f7d1a808cc12164c9e83b70",
    "m_Id": 6,
    "m_DisplayName": "B",
    "m_SlotType": 1,
    "m_Hidden": false,
    "m_ShaderOutputName": "B",
    "m_StageCapability": 2,
    "m_Value": 0.0,
    "m_DefaultValue": 0.0,
    "m_Labels": [
        "X"
    ]
}

{
    "m_SGVersion": 0,
    "m_Type": "UnityEditor.ShaderGraph.Vector1Node",
    "m_ObjectId": "b3a1578a2007457e9ab4ceba508e444c",
    "m_Group": {
        "m_Id": ""
    },
    "m_Name": "Float",
    "m_DrawState": {
        "m_Expanded": true,
        "m_Position": {
            "serializedVersion": "2",
            "x": -828.0001220703125,
            "y": 152.0,
            "width": 126.0,
            "height": 77.00003051757813
        }
    },
    "m_Slots": [
        {
            "m_Id": "815cdabbeca349daaee0deb95a36cdb4"
        },
        {
            "m_Id": "238d148d2e3d487db53d6bc5044910e1"
        }
    ],
    "synonyms": [
        "Vector 1",
        "1",
        "v1",
        "vec1",
        "scalar"
    ],
    "m_Precision": 0,
    "m_PreviewExpanded": true,
    "m_PreviewMode": 0,
    "m_CustomColors": {
        "m_SerializableColors": []
    },
    "m_Value": 0.0
}

{
    "m_SGVersion": 0,
    "m_Type": "UnityEditor.ShaderGraph.ParallaxOcclusionMappingNode",
    "m_ObjectId": "b4201a0782cae383b996659cb1b40c13",
    "m_Group": {
        "m_Id": ""
    },
    "m_Name": "Parallax Occlusion Mapping",
    "m_DrawState": {
        "m_Expanded": true,
        "m_Position": {
            "serializedVersion": "2",
            "x": -1511.9998779296875,
            "y": 270.0000305175781,
            "width": 296.9998779296875,
            "height": 293.0000305175781
        }
    },
    "m_Slots": [
        {
            "m_Id": "7e7d566d52d12a80be5f9b14e2c5cdb5"
        },
        {
            "m_Id": "642902ccbe75ab80a5c3d115d9b92d87"
        },
        {
            "m_Id": "7df88753844a0d8cbace7f45b608aef3"
        },
        {
            "m_Id": "a0d9ebb408a3158dbd17823c4a45d016"
        },
        {
            "m_Id": "22e29f58bc99558387ebc5765c9640a1"
        },
        {
            "m_Id": "4ae24bd2798cc6819a3f98da354f05b6"
        },
        {
            "m_Id": "40b0497303ef2f8d94319ed1bdf58ce1"
        },
        {
            "m_Id": "7f34c89a26976587bd625e1c98b6258b"
        },
        {
            "m_Id": "730ee8ed9eabe88eb7f4d5bdd250eca4"
        },
        {
            "m_Id": "330c25d40a634b489437dbc39b8a9ffa"
        },
        {
            "m_Id": "bfe007526e6c41b18f3bd81cf9b9bbbb"
        },
        {
            "m_Id": "56a4a6c2f53f4c899478b689fa85ee76"
        }
    ],
    "synonyms": [
        "pom"
    ],
    "m_Precision": 0,
    "m_PreviewExpanded": true,
    "m_PreviewMode": 0,
    "m_CustomColors": {
        "m_SerializableColors": []
    }
}

{
    "m_SGVersion": 0,
    "m_Type": "UnityEditor.ShaderGraph.Vector1MaterialSlot",
    "m_ObjectId": "b9889bbe978c198485ee84d5c84dc50b",
    "m_Id": 5,
    "m_DisplayName": "G",
    "m_SlotType": 1,
    "m_Hidden": false,
    "m_ShaderOutputName": "G",
    "m_StageCapability": 2,
    "m_Value": 0.0,
    "m_DefaultValue": 0.0,
    "m_Labels": [
        "X"
    ]
}

{
    "m_SGVersion": 0,
    "m_Type": "UnityEditor.ShaderGraph.Texture2DInputMaterialSlot",
    "m_ObjectId": "be0019f955d1ba849d66c91993dd6433",
    "m_Id": 1,
    "m_DisplayName": "Texture",
    "m_SlotType": 0,
    "m_Hidden": false,
    "m_ShaderOutputName": "Texture",
    "m_StageCapability": 3,
    "m_BareResource": false,
    "m_Texture": {
        "m_SerializedTexture": "{\"texture\":{\"fileID\":2800000,\"guid\":\"4bd0eb22468fb27449180afc558970a6\",\"type\":3}}",
        "m_Guid": ""
    },
    "m_DefaultType": 0
}

{
    "m_SGVersion": 0,
    "m_Type": "UnityEditor.ShaderGraph.Vector2MaterialSlot",
    "m_ObjectId": "bfe007526e6c41b18f3bd81cf9b9bbbb",
    "m_Id": 11,
    "m_DisplayName": "Offset",
    "m_SlotType": 0,
    "m_Hidden": false,
    "m_ShaderOutputName": "Offset",
    "m_StageCapability": 2,
    "m_Value": {
        "x": 0.0,
        "y": 0.0
    },
    "m_DefaultValue": {
        "x": 0.0,
        "y": 0.0
    },
    "m_Labels": []
}

{
    "m_SGVersion": 0,
    "m_Type": "UnityEditor.ShaderGraph.UVMaterialSlot",
    "m_ObjectId": "c0abd472ee04d3809037ec4fb0a692d2",
    "m_Id": 2,
    "m_DisplayName": "UV",
    "m_SlotType": 0,
    "m_Hidden": false,
    "m_ShaderOutputName": "UV",
    "m_StageCapability": 3,
    "m_Value": {
        "x": 0.0,
        "y": 0.0
    },
    "m_DefaultValue": {
        "x": 0.0,
        "y": 0.0
    },
    "m_Labels": [
        "X",
        "Y"
    ],
    "m_Channel": 0
}

{
    "m_SGVersion": 0,
    "m_Type": "UnityEditor.ShaderGraph.DynamicValueMaterialSlot",
    "m_ObjectId": "c169bbcb44e9439aa1198672fa365abd",
    "m_Id": 2,
    "m_DisplayName": "Out",
    "m_SlotType": 1,
    "m_Hidden": false,
    "m_ShaderOutputName": "Out",
    "m_StageCapability": 3,
    "m_Value": {
        "e00": 0.0,
        "e01": 0.0,
        "e02": 0.0,
        "e03": 0.0,
        "e10": 0.0,
        "e11": 0.0,
        "e12": 0.0,
        "e13": 0.0,
        "e20": 0.0,
        "e21": 0.0,
        "e22": 0.0,
        "e23": 0.0,
        "e30": 0.0,
        "e31": 0.0,
        "e32": 0.0,
        "e33": 0.0
    },
    "m_DefaultValue": {
        "e00": 1.0,
        "e01": 0.0,
        "e02": 0.0,
        "e03": 0.0,
        "e10": 0.0,
        "e11": 1.0,
        "e12": 0.0,
        "e13": 0.0,
        "e20": 0.0,
        "e21": 0.0,
        "e22": 1.0,
        "e23": 0.0,
        "e30": 0.0,
        "e31": 0.0,
        "e32": 0.0,
        "e33": 1.0
    }
}

{
    "m_SGVersion": 0,
    "m_Type": "UnityEditor.ShaderGraph.Vector1MaterialSlot",
    "m_ObjectId": "c4eec17a00790e8c892e292e5d74d76c",
    "m_Id": 1,
    "m_DisplayName": "Strength",
    "m_SlotType": 0,
    "m_Hidden": false,
    "m_ShaderOutputName": "Strength",
    "m_StageCapability": 3,
    "m_Value": -0.3499999940395355,
    "m_DefaultValue": 1.0,
    "m_Labels": [
        "X"
    ]
}

{
    "m_SGVersion": 0,
    "m_Type": "UnityEditor.ShaderGraph.Vector4MaterialSlot",
    "m_ObjectId": "c9eeacf7d58c2089b67ca6688c9b5db2",
    "m_Id": 0,
    "m_DisplayName": "RGBA",
    "m_SlotType": 1,
    "m_Hidden": false,
    "m_ShaderOutputName": "RGBA",
    "m_StageCapability": 2,
    "m_Value": {
        "x": 0.0,
        "y": 0.0,
        "z": 0.0,
        "w": 0.0
    },
    "m_DefaultValue": {
        "x": 0.0,
        "y": 0.0,
        "z": 0.0,
        "w": 0.0
    },
    "m_Labels": []
}

{
    "m_SGVersion": 0,
    "m_Type": "UnityEditor.Rendering.HighDefinition.ShaderGraph.HDLitData",
    "m_ObjectId": "d0a69883a4114e769e40f142f1cedc69",
    "m_RayTracing": false,
    "m_MaterialType": 0,
    "m_RefractionModel": 0,
    "m_SSSTransmission": true,
    "m_EnergyConservingSpecular": true,
    "m_ClearCoat": false
}

{
    "m_SGVersion": 1,
    "m_Type": "UnityEditor.ShaderGraph.Internal.Vector1ShaderProperty",
    "m_ObjectId": "d1a8331ca0c5403cb32e92a948effa27",
    "m_Guid": {
        "m_GuidSerialized": "edad4c00-e41c-469a-816c-adb6a77bab9d"
    },
    "m_Name": "HeightScale",
    "m_DefaultRefNameVersion": 1,
    "m_RefNameGeneratedByDisplayName": "HeightScale",
    "m_DefaultReferenceName": "_HeightScale",
    "m_OverrideReferenceName": "",
    "m_GeneratePropertyBlock": true,
    "m_UseCustomSlotLabel": false,
    "m_CustomSlotLabel": "",
    "m_Precision": 0,
    "overrideHLSLDeclaration": false,
    "hlslDeclarationOverride": 0,
    "m_Hidden": false,
    "m_Value": 0.5,
    "m_FloatType": 0,
    "m_RangeValues": {
        "x": 0.0,
        "y": 1.0
    }
}

{
    "m_SGVersion": 0,
    "m_Type": "UnityEditor.ShaderGraph.PositionMaterialSlot",
    "m_ObjectId": "d224664e9712463eb0a870f229ba7174",
    "m_Id": 0,
    "m_DisplayName": "Position",
    "m_SlotType": 0,
    "m_Hidden": false,
    "m_ShaderOutputName": "Position",
    "m_StageCapability": 1,
    "m_Value": {
        "x": 0.0,
        "y": 0.0,
        "z": 0.0
    },
    "m_DefaultValue": {
        "x": 0.0,
        "y": 0.0,
        "z": 0.0
    },
    "m_Labels": [],
    "m_Space": 0
}

{
    "m_SGVersion": 0,
    "m_Type": "UnityEditor.Rendering.HighDefinition.ShaderGraph.HDLitSubTarget",
    "m_ObjectId": "d3b26de769334ed299bbe45241cbefbd"
}

{
    "m_SGVersion": 0,
    "m_Type": "UnityEditor.ShaderGraph.Vector1MaterialSlot",
    "m_ObjectId": "d51aa5ab64dcec8b9125fc1484c6b7c3",
    "m_Id": 6,
    "m_DisplayName": "B",
    "m_SlotType": 1,
    "m_Hidden": false,
    "m_ShaderOutputName": "B",
    "m_StageCapability": 2,
    "m_Value": 0.0,
    "m_DefaultValue": 0.0,
    "m_Labels": [
        "X"
    ]
}

{
    "m_SGVersion": 0,
    "m_Type": "UnityEditor.ShaderGraph.Vector1MaterialSlot",
    "m_ObjectId": "d87a196dc938458bb8611747e8fc22d7",
    "m_Id": 0,
    "m_DisplayName": "Depth Offset",
    "m_SlotType": 0,
    "m_Hidden": false,
    "m_ShaderOutputName": "DepthOffset",
    "m_StageCapability": 2,
    "m_Value": 0.0,
    "m_DefaultValue": 0.0,
    "m_Labels": []
}

{
    "m_SGVersion": 0,
    "m_Type": "UnityEditor.ShaderGraph.PropertyNode",
    "m_ObjectId": "d917340e4d304771ab5e3eeed3398ffa",
    "m_Group": {
        "m_Id": ""
    },
    "m_Name": "Property",
    "m_DrawState": {
        "m_Expanded": true,
        "m_Position": {
            "serializedVersion": "2",
            "x": -1594.7825927734375,
            "y": 339.13043212890627,
            "width": 0.0,
            "height": 0.0
        }
    },
    "m_Slots": [
        {
            "m_Id": "401295488865499fbd79dbbb95ac296d"
        }
    ],
    "synonyms": [],
    "m_Precision": 0,
    "m_PreviewExpanded": true,
    "m_PreviewMode": 0,
    "m_CustomColors": {
        "m_SerializableColors": []
    },
    "m_Property": {
        "m_Id": "d1a8331ca0c5403cb32e92a948effa27"
    }
}

{
    "m_SGVersion": 0,
    "m_Type": "UnityEditor.ShaderGraph.BlockNode",
    "m_ObjectId": "dc6a8e6f2b58463c9129cef57068b2ae",
    "m_Group": {
        "m_Id": ""
    },
    "m_Name": "VertexDescription.Position",
    "m_DrawState": {
        "m_Expanded": true,
        "m_Position": {
            "serializedVersion": "2",
            "x": 0.0,
            "y": 0.0,
            "width": 0.0,
            "height": 0.0
        }
    },
    "m_Slots": [
        {
            "m_Id": "d224664e9712463eb0a870f229ba7174"
        }
    ],
    "synonyms": [],
    "m_Precision": 0,
    "m_PreviewExpanded": true,
    "m_PreviewMode": 0,
    "m_CustomColors": {
        "m_SerializableColors": []
    },
    "m_SerializedDescriptor": "VertexDescription.Position"
}

{
    "m_SGVersion": 0,
    "m_Type": "UnityEditor.ShaderGraph.NormalStrengthNode",
    "m_ObjectId": "dec81c81dfeed081bda51ac0438c52e1",
    "m_Group": {
        "m_Id": ""
    },
    "m_Name": "Normal Strength",
    "m_DrawState": {
        "m_Expanded": true,
        "m_Position": {
            "serializedVersion": "2",
            "x": -403.0,
            "y": 261.0,
            "width": 208.0,
            "height": 302.0
        }
    },
    "m_Slots": [
        {
            "m_Id": "8f6f7133dbd46d89beb1766f5281abb3"
        },
        {
            "m_Id": "c4eec17a00790e8c892e292e5d74d76c"
        },
        {
            "m_Id": "5ad473097b61df89bebb501c15b295db"
        }
    ],
    "synonyms": [
        "intensity"
    ],
    "m_Precision": 0,
    "m_PreviewExpanded": true,
    "m_PreviewMode": 0,
    "m_CustomColors": {
        "m_SerializableColors": []
    }
}

{
    "m_SGVersion": 0,
    "m_Type": "UnityEditor.ShaderGraph.ColorRGBMaterialSlot",
    "m_ObjectId": "e2477d0f398c48d2a51855c90e3b218f",
    "m_Id": 0,
    "m_DisplayName": "Emission",
    "m_SlotType": 0,
    "m_Hidden": false,
    "m_ShaderOutputName": "Emission",
    "m_StageCapability": 2,
    "m_Value": {
        "x": 0.0,
        "y": 0.0,
        "z": 0.0
    },
    "m_DefaultValue": {
        "x": 0.0,
        "y": 0.0,
        "z": 0.0
    },
    "m_Labels": [],
    "m_ColorMode": 1,
    "m_DefaultColor": {
        "r": 0.0,
        "g": 0.0,
        "b": 0.0,
        "a": 1.0
    }
}

{
    "m_SGVersion": 0,
    "m_Type": "UnityEditor.ShaderGraph.BlockNode",
    "m_ObjectId": "e98c0266919645709c89d1cf0f5c7972",
    "m_Group": {
        "m_Id": ""
    },
    "m_Name": "SurfaceDescription.Smoothness",
    "m_DrawState": {
        "m_Expanded": true,
        "m_Position": {
            "serializedVersion": "2",
            "x": 0.0,
            "y": 0.0,
            "width": 0.0,
            "height": 0.0
        }
    },
    "m_Slots": [
        {
            "m_Id": "b0a469e4d6714421a4f0cd9eb33a0081"
        }
    ],
    "synonyms": [],
    "m_Precision": 0,
    "m_PreviewExpanded": true,
    "m_PreviewMode": 0,
    "m_CustomColors": {
        "m_SerializableColors": []
    },
    "m_SerializedDescriptor": "SurfaceDescription.Smoothness"
}

{
    "m_SGVersion": 0,
    "m_Type": "UnityEditor.ShaderGraph.Vector1MaterialSlot",
    "m_ObjectId": "ed20efcfa21c49b4b95dacff3ee192ce",
    "m_Id": 3,
    "m_DisplayName": "B",
    "m_SlotType": 1,
    "m_Hidden": false,
    "m_ShaderOutputName": "B",
    "m_StageCapability": 3,
    "m_Value": 0.0,
    "m_DefaultValue": 0.0,
    "m_Labels": []
}

{
    "m_SGVersion": 0,
    "m_Type": "UnityEditor.ShaderGraph.Vector1MaterialSlot",
    "m_ObjectId": "f80680320a21ad8faaeb159ee41cffd5",
    "m_Id": 7,
    "m_DisplayName": "A",
    "m_SlotType": 1,
    "m_Hidden": false,
    "m_ShaderOutputName": "A",
    "m_StageCapability": 2,
    "m_Value": 0.0,
    "m_DefaultValue": 0.0,
    "m_Labels": [
        "X"
    ]
}

{
    "m_SGVersion": 0,
    "m_Type": "UnityEditor.ShaderGraph.Vector1MaterialSlot",
    "m_ObjectId": "f8956770342562848d2c9aadd62a0b80",
    "m_Id": 6,
    "m_DisplayName": "B",
    "m_SlotType": 1,
    "m_Hidden": false,
    "m_ShaderOutputName": "B",
    "m_StageCapability": 2,
    "m_Value": 0.0,
    "m_DefaultValue": 0.0,
    "m_Labels": [
        "X"
    ]
}

{
    "m_SGVersion": 0,
    "m_Type": "UnityEditor.ShaderGraph.DynamicVectorMaterialSlot",
    "m_ObjectId": "f9968158a683e48c8ab930605118897b",
    "m_Id": 2,
    "m_DisplayName": "T",
    "m_SlotType": 0,
    "m_Hidden": false,
    "m_ShaderOutputName": "T",
    "m_StageCapability": 3,
    "m_Value": {
        "x": 0.0,
        "y": 0.0,
        "z": 0.0,
        "w": 0.0
    },
    "m_DefaultValue": {
        "x": 0.0,
        "y": 0.0,
        "z": 0.0,
        "w": 0.0
    }
}

{
    "m_SGVersion": 0,
    "m_Type": "UnityEditor.ShaderGraph.Vector1MaterialSlot",
    "m_ObjectId": "f9eb776ca594d3859e084470e0dd5f03",
    "m_Id": 7,
    "m_DisplayName": "A",
    "m_SlotType": 1,
    "m_Hidden": false,
    "m_ShaderOutputName": "A",
    "m_StageCapability": 2,
    "m_Value": 0.0,
    "m_DefaultValue": 0.0,
    "m_Labels": [
        "X"
    ]
}

{
    "m_SGVersion": 0,
    "m_Type": "UnityEditor.ShaderGraph.Vector1MaterialSlot",
    "m_ObjectId": "fe43d10a0c326384a7cd6edf04189da9",
    "m_Id": 5,
    "m_DisplayName": "G",
    "m_SlotType": 1,
    "m_Hidden": false,
    "m_ShaderOutputName": "G",
    "m_StageCapability": 2,
    "m_Value": 0.0,
    "m_DefaultValue": 0.0,
    "m_Labels": [
        "X"
    ]
}

